<svg width="24" height="24" viewBox="0 0 24 24" fill="none" xmlns="http://www.w3.org/2000/svg">
<g id="Date">
<path id="Vector" d="M16.75 4V4.25H17H19C19.7293 4.25 20.4288 4.53973 20.9445 5.05546C21.4603 5.57118 21.75 6.27065 21.75 7V19C21.75 19.7293 21.4603 20.4288 20.9445 20.9445C20.4288 21.4603 19.7293 21.75 19 21.75H5C4.27065 21.75 3.57118 21.4603 3.05546 20.9445C2.53973 20.4288 2.25 19.7293 2.25 19V7C2.25 6.27065 2.53973 5.57118 3.05546 5.05546C3.57118 4.53973 4.27065 4.25 5 4.25H7H7.25V4V3C7.25 2.80109 7.32902 2.61032 7.46967 2.46967C7.61032 2.32902 7.80109 2.25 8 2.25C8.19891 2.25 8.38968 2.32902 8.53033 2.46967C8.67098 2.61032 8.75 2.80109 8.75 3V4V4.25H9H15H15.25V4V3C15.25 2.80109 15.329 2.61032 15.4697 2.46967C15.6103 2.32902 15.8011 2.25 16 2.25C16.1989 2.25 16.3897 2.32902 16.5303 2.46967C16.671 2.61032 16.75 2.80109 16.75 3V4ZM4 11.75H3.75V12V19C3.75 19.3315 3.8817 19.6495 4.11612 19.8839C4.35054 20.1183 4.66848 20.25 5 20.25H19C19.3315 20.25 19.6495 20.1183 19.8839 19.8839C20.1183 19.6495 20.25 19.3315 20.25 19V12V11.75H20H4ZM20 10.25H20.25V10V7C20.25 6.66848 20.1183 6.35054 19.8839 6.11612C19.6495 5.88169 19.3315 5.75 19 5.75H17H16.75V6V7C16.75 7.19891 16.671 7.38968 16.5303 7.53033C16.3897 7.67098 16.1989 7.75 16 7.75C15.8011 7.75 15.6103 7.67098 15.4697 7.53033C15.329 7.38968 15.25 7.19891 15.25 7V6V5.75H15H9H8.75V6V7C8.75 7.19891 8.67098 7.38968 8.53033 7.53033C8.38968 7.67098 8.19891 7.75 8 7.75C7.80109 7.75 7.61032 7.67098 7.46967 7.53033C7.32902 7.38968 7.25 7.19891 7.25 7V6V5.75H7H5C4.66848 5.75 4.35054 5.8817 4.11612 6.11612C3.8817 6.35054 3.75 6.66848 3.75 7V10V10.25H4H20Z" fill="#14192B" stroke="white" stroke-width="0.5"/>
</g>
</svg>
