<svg width="41" height="40" viewBox="0 0 41 40" fill="none" xmlns="http://www.w3.org/2000/svg">
<path d="M20.2327 2.21216C10.4248 2.21216 2.44531 10.1917 2.44531 19.9999C2.44531 29.8084 10.4248 37.7876 20.2327 37.7876C30.0409 37.7876 38.0208 29.8084 38.0208 19.9999C38.0205 10.1917 30.0406 2.21216 20.2327 2.21216ZM20.2327 36.0332C11.3921 36.0332 4.1997 28.8408 4.1997 19.9999C4.1997 11.1592 11.3921 3.96654 20.2327 3.96654C29.0734 3.96654 36.2664 11.1592 36.2664 19.9999C36.2661 28.8408 29.0734 36.0332 20.2327 36.0332Z" fill="black"/>
<path d="M11.5005 17.4873C12.0422 17.4873 12.5394 17.6354 12.9922 17.9316C13.4492 18.2236 13.8089 18.6257 14.0713 19.1377C14.3337 19.6455 14.4648 20.1999 14.4648 20.8008C14.4648 21.4017 14.3337 21.9582 14.0713 22.4702C13.8089 22.978 13.4492 23.3822 12.9922 23.6826C12.5394 23.9788 12.0422 24.127 11.5005 24.127C10.6118 24.127 9.93896 23.7863 9.48193 23.105V24H7.64746V14.8975H9.48193V18.5156C9.9432 17.8301 10.616 17.4873 11.5005 17.4873ZM11.0815 22.375C11.5259 22.375 11.9025 22.2227 12.2114 21.918C12.5246 21.6133 12.6812 21.2409 12.6812 20.8008C12.6812 20.3649 12.5246 19.9946 12.2114 19.6899C11.8983 19.381 11.5216 19.2266 11.0815 19.2266C10.633 19.2266 10.2542 19.3789 9.94531 19.6836C9.63639 19.9883 9.48193 20.3607 9.48193 20.8008C9.48193 21.2451 9.63639 21.6196 9.94531 21.9243C10.2542 22.2248 10.633 22.375 11.0815 22.375ZM17.1199 14.8975V24H15.2855V14.8975H17.1199ZM21.2096 17.4873C21.6709 17.4873 22.1046 17.5719 22.5109 17.7412C22.9214 17.9105 23.2726 18.1432 23.5646 18.4395C23.8608 18.7314 24.0936 19.0848 24.2628 19.4995C24.4363 19.91 24.5231 20.348 24.5231 20.8135C24.5231 21.4355 24.3771 22.0005 24.0851 22.5083C23.7973 23.0161 23.3996 23.4139 22.8917 23.7017C22.3882 23.9852 21.8274 24.127 21.2096 24.127C20.2659 24.127 19.4767 23.8117 18.8419 23.1812C18.2072 22.5506 17.8898 21.7614 17.8898 20.8135C17.8898 19.8656 18.2072 19.0742 18.8419 18.4395C19.4767 17.8047 20.2659 17.4873 21.2096 17.4873ZM21.2096 19.2393C20.7737 19.2393 20.4098 19.3895 20.1178 19.6899C19.8301 19.9862 19.6862 20.3607 19.6862 20.8135C19.6862 21.2536 19.8301 21.6239 20.1178 21.9243C20.4098 22.2248 20.7737 22.375 21.2096 22.375C21.637 22.375 21.9967 22.2248 22.2887 21.9243C22.5807 21.6239 22.7267 21.2536 22.7267 20.8135C22.7267 20.3607 22.5807 19.9862 22.2887 19.6899C22.001 19.3895 21.6412 19.2393 21.2096 19.2393ZM30.0156 17.6016H31.8501V23.543C31.8501 24.1693 31.6893 24.7194 31.3676 25.1934C31.0503 25.6673 30.6271 26.0249 30.0981 26.2661C29.5734 26.5073 28.9873 26.6279 28.3398 26.6279C27.7939 26.6279 27.2417 26.5348 26.6831 26.3486C26.1287 26.1667 25.7013 25.9212 25.4008 25.6123L26.2959 24.3364C26.8545 24.7723 27.5358 24.9902 28.3398 24.9902C28.6064 24.9902 28.8667 24.931 29.1206 24.8125C29.3745 24.6982 29.5861 24.5269 29.7553 24.2983C29.9288 24.0698 30.0156 23.818 30.0156 23.543V22.9209C29.5501 23.598 28.873 23.9365 27.9843 23.9365C27.4427 23.9365 26.9433 23.7926 26.4863 23.5049C26.0335 23.2129 25.6759 22.8193 25.4135 22.3242C25.1512 21.8249 25.02 21.2832 25.02 20.6992C25.02 20.1195 25.1512 19.582 25.4135 19.0869C25.6759 18.5918 26.0335 18.2004 26.4863 17.9126C26.9433 17.6206 27.4427 17.4746 27.9843 17.4746C28.873 17.4746 29.5501 17.8132 30.0156 18.4902V17.6016ZM28.416 22.229C28.8645 22.229 29.2433 22.083 29.5522 21.791C29.8611 21.4948 30.0156 21.1309 30.0156 20.6992C30.0156 20.2718 29.8611 19.9121 29.5522 19.6201C29.2433 19.3239 28.8645 19.1758 28.416 19.1758C27.9759 19.1758 27.5992 19.3239 27.2861 19.6201C26.9729 19.9163 26.8164 20.276 26.8164 20.6992C26.8164 21.1266 26.9708 21.4884 27.2797 21.7847C27.5929 22.0809 27.9716 22.229 28.416 22.229Z" fill="black"/>
</svg>
