<svg width="32" height="32" viewBox="0 0 32 32" fill="none" xmlns="http://www.w3.org/2000/svg">
<g id="instagram">
<path id="Vector" d="M15.9974 12.6927C15.3434 12.6927 14.7041 12.8866 14.1603 13.25C13.6165 13.6133 13.1927 14.1297 12.9424 14.7339C12.6922 15.3382 12.6267 16.003 12.7543 16.6444C12.8819 17.2859 13.1968 17.8751 13.6592 18.3375C14.1217 18.8 14.7109 19.1149 15.3523 19.2425C15.9937 19.3701 16.6586 19.3046 17.2628 19.0543C17.867 18.804 18.3834 18.3802 18.7468 17.8364C19.1101 17.2927 19.3041 16.6533 19.3041 15.9993C19.3041 15.5651 19.2185 15.1351 19.0524 14.7339C18.8862 14.3328 18.6426 13.9682 18.3356 13.6612C18.0285 13.3541 17.664 13.1106 17.2628 12.9444C16.8616 12.7782 16.4316 12.6927 15.9974 12.6927ZM29.2374 9.42602C29.2304 8.39636 29.0408 7.37611 28.6774 6.41268C28.4098 5.7077 27.9957 5.06747 27.4625 4.53426C26.9293 4.00105 26.289 3.58697 25.5841 3.31935C24.6206 2.95597 23.6004 2.76636 22.5707 2.75935C20.8507 2.66602 20.3441 2.66602 15.9974 2.66602C11.6507 2.66602 11.1441 2.66602 9.42406 2.75935C8.39441 2.76636 7.37416 2.95597 6.41073 3.31935C5.70574 3.58697 5.06552 4.00105 4.53231 4.53426C3.9991 5.06747 3.58502 5.7077 3.3174 6.41268C2.95401 7.37611 2.76441 8.39636 2.7574 9.42602C2.66406 11.146 2.66406 11.6527 2.66406 15.9993C2.66406 20.346 2.66406 20.8527 2.7574 22.5727C2.77175 23.606 2.96109 24.6293 3.3174 25.5993C3.58383 26.3011 3.99757 26.9376 4.53073 27.466C5.06165 28.0024 5.70325 28.4165 6.41073 28.6793C7.37416 29.0427 8.39441 29.2323 9.42406 29.2393C11.1441 29.3327 11.6507 29.3327 15.9974 29.3327C20.3441 29.3327 20.8507 29.3327 22.5707 29.2393C23.6004 29.2323 24.6206 29.0427 25.5841 28.6793C26.2915 28.4165 26.9331 28.0024 27.4641 27.466C27.9972 26.9376 28.411 26.3011 28.6774 25.5993C29.0404 24.6312 29.23 23.6066 29.2374 22.5727C29.3307 20.8527 29.3307 20.346 29.3307 15.9993C29.3307 11.6527 29.3307 11.146 29.2374 9.42602ZM25.8507 20.0927C25.8079 20.9155 25.6323 21.726 25.3307 22.4927C25.0719 23.1323 24.6871 23.7133 24.1992 24.2012C23.7113 24.689 23.1303 25.0738 22.4907 25.3327C21.7167 25.6175 20.9018 25.7751 20.0774 25.7993C19.0241 25.7993 18.7441 25.7993 15.9974 25.7993C13.2507 25.7993 12.9707 25.7993 11.9174 25.7993C11.093 25.7751 10.278 25.6175 9.50406 25.3327C8.84287 25.087 8.24576 24.695 7.7574 24.186C7.27428 23.7077 6.90119 23.1298 6.66406 22.4927C6.37814 21.7195 6.22487 20.9036 6.21073 20.0793C6.21073 19.026 6.21073 18.746 6.21073 15.9993C6.21073 13.2527 6.21073 12.9727 6.21073 11.9193C6.22487 11.0951 6.37814 10.2792 6.66406 9.50602C6.90977 8.84482 7.30176 8.24772 7.81073 7.75935C8.29117 7.27885 8.86841 6.90614 9.50406 6.66602C10.278 6.38122 11.093 6.22363 11.9174 6.19935C12.9707 6.19935 13.2507 6.19935 15.9974 6.19935C18.7441 6.19935 19.0241 6.19935 20.0774 6.19935C20.9018 6.22363 21.7167 6.38122 22.4907 6.66602C23.1519 6.91172 23.749 7.30371 24.2374 7.81268C24.7205 8.29101 25.0936 8.86886 25.3307 9.50602C25.6155 10.28 25.7731 11.095 25.7974 11.9193C25.7974 12.9727 25.7974 13.2527 25.7974 15.9993C25.7974 18.746 25.8907 19.026 25.8507 20.0793V20.0927ZM23.7174 10.1727C23.5586 9.74199 23.3083 9.35087 22.9838 9.0263C22.6592 8.70173 22.2681 8.45143 21.8374 8.29268C21.246 8.0877 20.6232 7.9884 19.9974 7.99935C18.9574 7.99935 18.6641 7.99935 15.9974 7.99935C13.3307 7.99935 13.0374 7.99935 11.9974 7.99935C11.3684 8.0055 10.7455 8.12286 10.1574 8.34602C9.7333 8.49756 9.34632 8.73763 9.02217 9.05028C8.69803 9.36293 8.44414 9.741 8.2774 10.1593C8.08376 10.7532 7.98917 11.3748 7.9974 11.9993C7.9974 13.0393 7.9974 13.3327 7.9974 15.9993C7.9974 18.666 7.9974 18.9593 7.9974 19.9993C8.01061 20.6276 8.12775 21.2493 8.34406 21.8393C8.50281 22.27 8.75311 22.6612 9.07768 22.9857C9.40225 23.3103 9.79337 23.5606 10.2241 23.7193C10.793 23.9286 11.3916 24.0456 11.9974 24.066C13.0374 24.066 13.3307 24.066 15.9974 24.066C18.6641 24.066 18.9574 24.066 19.9974 24.066C20.6264 24.0599 21.2493 23.9425 21.8374 23.7193C22.2681 23.5606 22.6592 23.3103 22.9838 22.9857C23.3083 22.6612 23.5586 22.27 23.7174 21.8393C23.9406 21.2513 24.0579 20.6283 24.0641 19.9993C24.0641 18.9593 24.0641 18.666 24.0641 15.9993C24.0641 13.3327 24.0641 13.0393 24.0641 11.9993C24.0644 11.3697 23.9469 10.7456 23.7174 10.1593V10.1727ZM15.9974 21.0927C15.3292 21.0927 14.6675 20.9608 14.0503 20.7047C13.4331 20.4486 12.8725 20.0732 12.4006 19.6001C11.9287 19.1269 11.5548 18.5653 11.3003 17.9475C11.0457 17.3296 10.9156 16.6676 10.9174 15.9993C10.9174 14.9914 11.2165 14.0061 11.7767 13.1683C12.337 12.3304 13.1332 11.6776 14.0647 11.2925C14.9961 10.9074 16.0209 10.8073 17.0093 11.0049C17.9977 11.2025 18.9052 11.6889 19.617 12.4026C20.3288 13.1162 20.8128 14.025 21.0078 15.0139C21.2028 16.0028 21.1001 17.0273 20.7125 17.9577C20.325 18.8882 19.6701 19.6827 18.8307 20.2408C17.9914 20.7988 17.0053 21.0953 15.9974 21.0927ZM21.3307 11.906C21.036 11.8748 20.7632 11.7356 20.565 11.5153C20.3667 11.295 20.257 11.0091 20.257 10.7127C20.257 10.4163 20.3667 10.1304 20.565 9.91005C20.7632 9.68972 21.036 9.55055 21.3307 9.51935C21.6255 9.55055 21.8982 9.68972 22.0965 9.91005C22.2947 10.1304 22.4044 10.4163 22.4044 10.7127C22.4044 11.0091 22.2947 11.295 22.0965 11.5153C21.8982 11.7356 21.6255 11.8748 21.3307 11.906Z" fill="#14192B"/>
</g>
</svg>
