<svg width="34" height="32" viewBox="0 0 34 32" fill="none" xmlns="http://www.w3.org/2000/svg">
<g id="Linkedin">
<path id="Vector" d="M4 6.78788C4 5.97978 4.28529 5.31312 4.85586 4.78788C5.42642 4.26262 6.16818 4 7.08108 4C7.9777 4 8.70313 4.25857 9.2574 4.77576C9.82797 5.30909 10.1133 6.00402 10.1133 6.86061C10.1133 7.63636 9.83613 8.28281 9.28186 8.8C8.71129 9.33333 7.96139 9.6 7.03218 9.6H7.00772C6.1111 9.6 5.38568 9.33333 4.8314 8.8C4.27713 8.26667 4 7.59595 4 6.78788ZM4.31789 28V11.8061H9.74646V28H4.31789ZM12.7542 28H18.1828V18.9576C18.1828 18.3919 18.248 17.9555 18.3784 17.6485C18.6066 17.099 18.953 16.6343 19.4176 16.2545C19.8823 15.8747 20.465 15.6848 21.166 15.6848C22.9919 15.6848 23.9048 16.905 23.9048 19.3455V28H29.3334V18.7152C29.3334 16.3232 28.7628 14.5091 27.6216 13.2727C26.4805 12.0364 24.9726 11.4182 23.0978 11.4182C20.9949 11.4182 19.3565 12.3152 18.1828 14.1091V14.1576H18.1583L18.1828 14.1091V11.8061H12.7542C12.7868 12.3232 12.8031 13.9313 12.8031 16.6303C12.8031 19.3293 12.7868 23.1192 12.7542 28Z" fill="#14192B"/>
</g>
</svg>
