<svg width="40" height="40" viewBox="0 0 40 40" fill="none" xmlns="http://www.w3.org/2000/svg">
<g clip-path="url(#clip0_4289_18090)">
<path d="M19.88 0C8.90243 0 0.00341797 8.29099 0.00341797 18.5185C0.00341797 24.3463 2.89379 29.5446 7.41083 32.9391V40L14.1786 36.2626C15.9848 36.7656 17.8982 37.037 19.88 37.037C30.8575 37.037 39.7565 28.746 39.7565 18.5185C39.7565 8.29099 30.8575 0 19.88 0ZM21.8553 24.9383L16.7935 19.5062L6.917 24.9383L17.7812 13.3333L22.9664 18.7654L32.7195 13.3333L21.8553 24.9383Z" fill="#0084FF"/>
</g>
<defs>
<clipPath id="clip0_4289_18090">
<rect width="39.76" height="40" fill="white"/>
</clipPath>
</defs>
</svg>
